{
    "webpack_includes": [],
    "envs": {
        "tst": {
            "host": "hlegal.superskrypt.pl",
            "user": "superskrypt",
            "path": "public_html/hlegal.superskrypt.pl/wp-content/plugins/hlegal-plugin"
        },
        "prod": {
            "host": "ssh.cluster030.hosting.ovh.net",
            "user": "ocjnknd-superskrypt",
            "path": "www/wp-content/plugins/hlegal-plugin"
        }
    }
}
